module gitlab.com/carban14/blog-generator

go 1.14

require (
	github.com/kr/pretty v0.1.0 // indirect
	github.com/russross/blackfriday v1.5.2
	gopkg.in/check.v1 v1.0.0-20180628173108-788fd7840127 // indirect
	gopkg.in/yaml.v2 v2.3.0
)
